{
  "actor": "Anggota Biro Latihan Kerja/Pelayanan Khusus",
  "dataForm": "Laporan tercetak",
  "activity": "Mencatat hasil kerja dan produksi sepatu",
  "dataDictionaryCode": "DD-DDiak-017",
  "processCode": "BP-DDiak-02-05",
  "description": "Laporan ini berisi detail produksi sepatu yang dilakukan oleh anggota biro latihan kerja/pelayanan khusus dalam memproduksi sepatu. ",
  "attributes": [
    {
      "dataType": "String",
      "length": "255",
      "description": "Judul laporan yang dicetak",
      "alias": "judul",
      "attributeName": "judul laporan"
    },
    {
      "dataType": "String",
      "length": "255",
      "description": "Bahan yang digunakan dalam produksi",
      "alias": "-",
      "attributeName": "bahan produksi"
    },
    {
      "dataType": "Currency",
      "length": "14.4",
      "description": "Biaya untuk pembelian barang untuk produksi",
      "alias": "-",
      "attributeName": "biaya pembelian bahan"
    },
    {
      "dataType": "String",
      "length": "100",
      "description": "Nama barang produksi",
      "alias": "nama",
      "attributeName": "nama barang produksi"
    },
    {
      "dataType": "String",
      "length": "50",
      "description": "Tipe barang produksi",
      "alias": "-",
      "attributeName": "tipe barang produksi"
    },
    {
      "dataType": "Integer",
      "length": "4",
      "description": "Jumlah barang produksi",
      "alias": "-",
      "attributeName": "jumlah barang produksi"
    },
    {
      "dataType": "String",
      "length": "100",
      "description": "Pihak yang menerima ",
      "alias": "-",
      "attributeName": "diterima oleh"
    },
    {
      "dataType": "String",
      "length": "100",
      "description": "Persetujuan atau diketahui oleh pembuat keputusan biasanya berupa tanda tangan dan nama.",
      "alias": "-",
      "attributeName": "disetujui oleh"
    }
  ],
  "documentName": "Laporan hasil produksi",
  "relation": "DD-DDiak-018"
}