{
  "actor": "Kepala Sekolah",
  "dataForm": "Dokumen tercetak",
  "activity": "Membuat daftar guru yang mengikuti pelatihan",
  "dataDictionaryCode": "DD-DDiak-030",
  "processCode": "BP-DDiak-03-04",
  "description": "Dokumen ini berisi daftar dan identitas singkat guru-guru yang ikut serta dalam kegiatan.",
  "attributes": [
    {
      "dataType": "String",
      "length": "100",
      "description": "Judul dari dokumen pelatihan guru",
      "alias": "judul",
      "attributeName": "judul dokumen"
    },
    {
      "dataType": "String[]",
      "length": "100",
      "description": "Nama masyarakat yang ikut serta",
      "alias": "nama",
      "attributeName": "nama peserta"
    },
    {
      "dataType": "Integer[]",
      "length": "2",
      "description": "Umur masyarakat yang ikut serta",
      "alias": "umur",
      "attributeName": "umur peserta"
    },
    {
      "dataType": "String[]",
      "length": "255",
      "description": "Alamat masyarakat yang ikut serta",
      "alias": "alamat",
      "attributeName": "alamat peserta"
    },
    {
      "dataType": "String",
      "length": "100",
      "description": "Pihak yang menerima ",
      "alias": "-",
      "attributeName": "diterima oleh"
    },
    {
      "dataType": "String",
      "length": "100",
      "description": "Persetujuan atau diketahui oleh pembuat keputusan biasanya berupa tanda tangan dan nama.",
      "alias": "-",
      "attributeName": "disetujui oleh"
    }
  ],
  "documentName": "Daftar guru yang mengikuti pelatihan",
  "relation": "DD-DDiak-026"
}